{
  "total_published": "6177",
  "total": 7,
  "data": [
    {
      "id": "115615",
      "name": "Festival Path 2017",
      "url": "https://test.sympla.com.br/festival-path-2017__115615",
      "logo_url": "https://d1gkntzr8mxq7s.cloudfront.net/fe_58b715e0a867e.png",
      "start_date": "2017-05-06 07:00:00",
      "event_type": "NORMAL",
      "location": {
        "name": "Rua dos Coropés, 88",
        "address": "Rua dos Coropés",
        "address_num": "88",
        "address_alt": "Credenciamento",
        "neighborhood": "Pinheiros",
        "city": "São Paulo",
        "state": "SP",
        "state_desc": "São Paulo",
        "zip_code": "05426-010"
      }
    },
    {
      "id": "120091",
      "name": "St. Patricks Day ☘ Belo Horizonte ☘ 2017",
      "url": "https://test.sympla.com.br/st-patricks-day--belo-horizonte--2017__120091",
      "logo_url": "https://d1gkntzr8mxq7s.cloudfront.net/fe_58b716384e1f8.png",
      "start_date": "2017-03-18 12:00:00",
      "event_type": "NORMAL",
      "location": {
        "name": "Parque das Mangabeiras",
        "address": "Avenida José de Patrocínio Pontes",
        "address_num": "580",
        "address_alt": "",
        "neighborhood": "Mangabeiras",
        "city": "Belo Horizonte",
        "state": "MG",
        "state_desc": "Minas Gerais",
        "zip_code": "30210-090"
      }
    },
    {
      "id": "83919",
      "name": "QCon São Paulo 2017",
      "url": "https://test.sympla.com.br/qcon-sao-paulo-2017__83919",
      "logo_url": "https://d1gkntzr8mxq7s.cloudfront.net/fe_5873e9b2aaa80.png",
      "start_date": "2017-04-24 08:15:00",
      "event_type": "NORMAL",
      "location": {
        "name": "Centro de Eventos PRO MAGNO",
        "address": "Rua Samaritá",
        "address_num": "230",
        "address_alt": "",
        "neighborhood": "Jardim das Laranjeiras",
        "city": "São Paulo",
        "state": "SP",
        "state_desc": "São Paulo",
        "zip_code": "02518-080"
      }
    },
    {
      "id": "104072",
      "name": "CIRCUITO BHSHOW MINEIRÃO 2017",
      "url": "https://test.sympla.com.br/circuito-bhshow-mineirao-2017__104072",
      "logo_url": "https://d1gkntzr8mxq7s.cloudfront.net/fe_58a1acd19a1cb.png",
      "start_date": "2017-03-05 09:00:00",
      "event_type": "NORMAL",
      "location": {
        "name": "Esplanada do Mineirão",
        "address": "Abraão Caram",
        "address_num": "1001",
        "address_alt": "",
        "neighborhood": "Pampulha",
        "city": "Belo Horizonte",
        "state": "MG",
        "state_desc": "Minas Gerais",
        "zip_code": ""
      }
    },
    {
      "id": "114047",
      "name": "WOD EXPERIENCE ",
      "url": "https://test.sympla.com.br/wod-experience__114047",
      "logo_url": "https://d1gkntzr8mxq7s.cloudfront.net/fe_58b716667fe8e.png",
      "start_date": "2017-04-21 08:00:00",
      "event_type": "NORMAL",
      "location": {
        "name": "Lagoa dos Ingleses",
        "address": "Av. Princesa Diana",
        "address_num": "",
        "address_alt": "",
        "neighborhood": "",
        "city": "Nova Lima",
        "state": "MG",
        "state_desc": "Minas Gerais",
        "zip_code": "34000-000"
      }
    },
    {
      "id": "106482",
      "name": "FESTIVAL BANANADA 2017",
      "url": "https://test.sympla.com.br/festival-bananada-2017__106482",
      "logo_url": "https://d1gkntzr8mxq7s.cloudfront.net/fe_58576b2bd4f2a.png",
      "start_date": "2017-05-08 12:00:00",
      "event_type": "NORMAL",
      "location": {
        "name": "Goiânia Rock City",
        "address": "Cidade de Goiânia",
        "address_num": "",
        "address_alt": "",
        "neighborhood": "",
        "city": "Goiânia ",
        "state": "GO",
        "state_desc": "Goiás",
        "zip_code": ""
      }
    },
    {
      "id": "118967",
      "name": "MASC Tour in Brazil (Porto Alegre)",
      "url": "https://test.sympla.com.br/masc-tour-in-brazil-porto-alegre__118967",
      "logo_url": "https://d1gkntzr8mxq7s.cloudfront.net/fe_58b716e335401.png",
      "start_date": "2017-06-04 18:00:00",
      "event_type": "NORMAL",
      "location": {
        "name": "Auditório Aiamu",
        "address": "Rua dos Andradas ",
        "address_num": "1234",
        "address_alt": "",
        "neighborhood": "Centro Histórico",
        "city": "Porto Alegre",
        "state": "RS",
        "state_desc": "Rio Grande do Sul",
        "zip_code": "90020-008"
      }
    }
  ]
}
